SystemC/MasterSlaveCycleAcc/src/DataTransfer.vcd
$date
     Sep 19, 2022       11:52:38
$end

$version
 SystemC 2.3.3-Accellera --- Aug 31 2022 11:54:38
$end

$timescale
     1 ns
$end

$scope module SystemC $end
$var wire    1  aaaaa  clock       $end
$var wire    1  aaaab  data_ready       $end
$var wire    1  aaaac  data_valid       $end
$var wire    4  aaaad  channel [3:0]  $end
$var wire    2  aaaae  error [1:0]  $end
$var wire   16  aaaaf  data [15:0]  $end
$upscope $end
$enddefinitions  $end

$comment
All initial values are dumped below at time 0 sec = 0 timescale units.
$end

$dumpvars
1aaaaa
0aaaab
0aaaac
b0 aaaad
b0 aaaae
b0 aaaaf
$end

#10
0aaaaa

#20
1aaaaa

#30
0aaaaa

#40
1aaaaa
1aaaab

#50
0aaaaa

#60
1aaaaa

#70
0aaaaa

#80
1aaaaa
1aaaac
b1010 aaaaf

#90
0aaaaa

#100
1aaaaa
0aaaab

#110
0aaaaa

#120
1aaaaa
0aaaac

#130
0aaaaa

#140
1aaaaa

#150
0aaaaa

#160
1aaaaa
1aaaab

#170
0aaaaa

#180
1aaaaa

#190
0aaaaa

#200
1aaaaa
1aaaac
b1001010001 aaaaf

#210
0aaaaa

#220
1aaaaa
0aaaab

#230
0aaaaa

#240
1aaaaa
0aaaac

#250
0aaaaa

#260
1aaaaa

#270
0aaaaa

#280
1aaaaa
1aaaab

#290
0aaaaa

#300
1aaaaa

#310
0aaaaa

#320
1aaaaa
1aaaac
b1100011000 aaaaf

#330
0aaaaa

#340
1aaaaa
0aaaab

#350
0aaaaa

#360
1aaaaa
0aaaac

#370
0aaaaa

#380
1aaaaa

#390
0aaaaa

#400
1aaaaa
1aaaab

#410
0aaaaa

#420
1aaaaa

#430
0aaaaa

#440
1aaaaa
1aaaac
b1010100110 aaaaf

#450
0aaaaa

#460
1aaaaa
0aaaab

#470
0aaaaa

#480
1aaaaa
0aaaac

#490
0aaaaa

#500
1aaaaa

#510
0aaaaa

#520
1aaaaa
1aaaab

#530
0aaaaa

#540
1aaaaa

#550
0aaaaa

#560
1aaaaa
1aaaac
b1010001010 aaaaf

#570
0aaaaa

#580
1aaaaa
0aaaab

#590
0aaaaa

#600
1aaaaa
0aaaac

#610
0aaaaa

#620
1aaaaa

#630
0aaaaa

#640
1aaaaa
1aaaab

#650
0aaaaa

#660
1aaaaa

#670
0aaaaa

#680
1aaaaa
1aaaac
b111010010 aaaaf

#690
0aaaaa

#700
1aaaaa
0aaaab

#710
0aaaaa

#720
1aaaaa
0aaaac

#730
0aaaaa

#740
1aaaaa

#750
0aaaaa

#760
1aaaaa
1aaaab

#770
0aaaaa

#780
1aaaaa

#790
0aaaaa

#800
1aaaaa
1aaaac
b10010100 aaaaf

#810
0aaaaa

#820
1aaaaa
0aaaab

#830
0aaaaa

#840
1aaaaa
0aaaac

#850
0aaaaa

#860
1aaaaa

#870
0aaaaa

#880
1aaaaa
1aaaab

#890
0aaaaa

#900
1aaaaa

#910
0aaaaa

#920
1aaaaa
1aaaac
b1010000000 aaaaf

#930
0aaaaa

#940
1aaaaa
0aaaab

#950
0aaaaa

#960
1aaaaa
0aaaac

#970
0aaaaa

#980
1aaaaa

#990
0aaaaa

#1000
1aaaaa
1aaaab

#1010
0aaaaa

#1020
1aaaaa

#1030
0aaaaa

#1040
1aaaaa
1aaaac
b10110 aaaaf

#1050
0aaaaa

#1060
1aaaaa
0aaaab

#1070
0aaaaa

#1080
1aaaaa
0aaaac

#1090
0aaaaa

#1100
1aaaaa

#1110
0aaaaa

#1120
1aaaaa
1aaaab

#1130
0aaaaa

#1140
1aaaaa

#1150
0aaaaa

#1160
1aaaaa
1aaaac
b1111000010000001 aaaaf

#1170
0aaaaa

#1180
1aaaaa
0aaaab

#1190
0aaaaa

#1200
1aaaaa
0aaaac

#1210
0aaaaa

#1220
1aaaaa

#1230
0aaaaa

#1240
1aaaaa
1aaaab

#1250
0aaaaa

#1260
1aaaaa

#1270
0aaaaa

#1280
1aaaaa
1aaaac
b1111111110011111 aaaaf

#1290
0aaaaa

#1300
1aaaaa
0aaaab

#1310
0aaaaa

#1320
1aaaaa
0aaaac

#1330
0aaaaa

#1340
1aaaaa

#1350
0aaaaa

#1360
1aaaaa
1aaaab

#1370
0aaaaa

#1380
1aaaaa

#1390
0aaaaa

#1400
1aaaaa
1aaaac
b1011100111011 aaaaf

#1410
0aaaaa

#1420
1aaaaa
0aaaab

#1430
0aaaaa

#1440
1aaaaa
0aaaac

#1450
0aaaaa

#1460
1aaaaa

#1470
0aaaaa

#1480
1aaaaa
1aaaab

#1490
0aaaaa

#1500
1aaaaa

#1510
0aaaaa

#1520
1aaaaa
1aaaac
b10110011000001 aaaaf

#1530
0aaaaa

#1540
1aaaaa
0aaaab

#1550
0aaaaa

#1560
1aaaaa
0aaaac

#1570
0aaaaa

#1580
1aaaaa

#1590
0aaaaa

#1600
1aaaaa
1aaaab

#1610
0aaaaa

#1620
1aaaaa

#1630
0aaaaa

#1640
1aaaaa
1aaaac
b11011010010100 aaaaf

#1650
0aaaaa

#1660
1aaaaa
0aaaab

#1670
0aaaaa

#1680
1aaaaa
0aaaac

#1690
0aaaaa

#1700
1aaaaa

#1710
0aaaaa

#1720
1aaaaa
1aaaab

#1730
0aaaaa

#1740
1aaaaa

#1750
0aaaaa

#1760
1aaaaa
1aaaac
b11000010111010 aaaaf

#1770
0aaaaa

#1780
1aaaaa
0aaaab

#1790
0aaaaa

#1800
1aaaaa
0aaaac

#1810
0aaaaa

#1820
1aaaaa

#1830
0aaaaa

#1840
1aaaaa
1aaaab

#1850
0aaaaa

#1860
1aaaaa

#1870
0aaaaa

#1880
1aaaaa
1aaaac
b1111011001011 aaaaf

#1890
0aaaaa

#1900
1aaaaa
0aaaab

#1910
0aaaaa

#1920
1aaaaa
0aaaac

#1930
0aaaaa

#1940
1aaaaa

#1950
0aaaaa

#1960
1aaaaa
1aaaab

#1970
0aaaaa

#1980
1aaaaa

#1990
0aaaaa

#2000
1aaaaa
1aaaac
b101000110001 aaaaf

#2010
0aaaaa

#2020
1aaaaa
0aaaab

#2030
0aaaaa

#2040
1aaaaa
0aaaac

#2050
0aaaaa

#2060
1aaaaa

#2070
0aaaaa

#2080
1aaaaa
1aaaab

#2090
0aaaaa

#2100
1aaaaa

#2110
0aaaaa

#2120
1aaaaa
1aaaac
b1111110110010011 aaaaf

#2130
0aaaaa

#2140
1aaaaa
0aaaab

#2150
0aaaaa

#2160
1aaaaa
0aaaac

#2170
0aaaaa

#2180
1aaaaa

#2190
0aaaaa

#2200
1aaaaa
1aaaab

#2210
0aaaaa

#2220
1aaaaa

#2230
0aaaaa

#2240
1aaaaa
1aaaac
b1111111110100010 aaaaf

#2250
0aaaaa

#2260
1aaaaa
0aaaab

#2270
0aaaaa

#2280
1aaaaa
0aaaac

#2290
0aaaaa

#2300
1aaaaa

#2310
0aaaaa

#2320
1aaaaa
1aaaab

#2330
0aaaaa

#2340
1aaaaa

#2350
0aaaaa

#2360
1aaaaa
1aaaac
b111111011100 aaaaf

#2370
0aaaaa

#2380
1aaaaa
0aaaab

#2390
0aaaaa

#2400
1aaaaa
0aaaac

#2410
0aaaaa

#2420
1aaaaa

#2430
0aaaaa

#2440
1aaaaa
1aaaab

#2450
0aaaaa

#2460
1aaaaa

#2470
0aaaaa

#2480
1aaaaa
1aaaac
b10011011001011 aaaaf

#2490
0aaaaa

#2500
1aaaaa
0aaaab

#2510
0aaaaa

#2520
1aaaaa
0aaaac

#2530
0aaaaa

#2540
1aaaaa

#2550
0aaaaa

#2560
1aaaaa
1aaaab

#2570
0aaaaa

#2580
1aaaaa

#2590
0aaaaa

#2600
1aaaaa
1aaaac
b11100110011111 aaaaf

#2610
0aaaaa

#2620
1aaaaa
0aaaab

#2630
0aaaaa

#2640
1aaaaa
0aaaac

#2650
0aaaaa

#2660
1aaaaa

#2670
0aaaaa

#2680
1aaaaa
1aaaab

#2690
0aaaaa

#2700
1aaaaa

#2710
0aaaaa

#2720
1aaaaa
1aaaac
b11111101110110 aaaaf

#2730
0aaaaa

#2740
1aaaaa
0aaaab

#2750
0aaaaa

#2760
1aaaaa
0aaaac

#2770
0aaaaa

#2780
1aaaaa

#2790
0aaaaa

#2800
1aaaaa
1aaaab

#2810
0aaaaa

#2820
1aaaaa

#2830
0aaaaa

#2840
1aaaaa
1aaaac
b11010110101100 aaaaf

#2850
0aaaaa

#2860
1aaaaa
0aaaab

#2870
0aaaaa

#2880
1aaaaa
0aaaac

#2890
0aaaaa

#2900
1aaaaa

#2910
0aaaaa

#2920
1aaaaa
1aaaab

#2930
0aaaaa

#2940
1aaaaa

#2950
0aaaaa

#2960
1aaaaa
1aaaac
b10000100100011 aaaaf

#2970
0aaaaa

#2980
1aaaaa
0aaaab

#2990
0aaaaa

#3000
1aaaaa
0aaaac

#3010
0aaaaa

#3020
1aaaaa

#3030
0aaaaa

#3040
1aaaaa
1aaaab

#3050
0aaaaa

#3060
1aaaaa

#3070
0aaaaa

#3080
1aaaaa
1aaaac
b101111100010 aaaaf

#3090
0aaaaa

#3100
1aaaaa
0aaaab

#3110
0aaaaa

#3120
1aaaaa
0aaaac

#3130
0aaaaa

#3140
1aaaaa

#3150
0aaaaa

#3160
1aaaaa
1aaaab

#3170
0aaaaa

#3180
1aaaaa

#3190
0aaaaa

#3200
1aaaaa
1aaaac
b110111 aaaaf

#3210
0aaaaa

#3220
1aaaaa
0aaaab

#3230
0aaaaa

#3240
1aaaaa
0aaaac

#3250
0aaaaa

#3260
1aaaaa

#3270
0aaaaa

#3280
1aaaaa
1aaaab

#3290
0aaaaa

#3300
1aaaaa

#3310
0aaaaa

#3320
1aaaaa
1aaaac
b1110110010 aaaaf

#3330
0aaaaa

#3340
1aaaaa
0aaaab

#3350
0aaaaa

#3360
1aaaaa
0aaaac

#3370
0aaaaa

#3380
1aaaaa

#3390
0aaaaa

#3400
1aaaaa
1aaaab

#3410
0aaaaa

#3420
1aaaaa

#3430
0aaaaa

#3440
1aaaaa
1aaaac
b1010001110000 aaaaf

#3450
0aaaaa

#3460
1aaaaa
0aaaab

#3470
0aaaaa

#3480
1aaaaa
0aaaac

#3490
0aaaaa

#3500
1aaaaa

#3510
0aaaaa

#3520
1aaaaa
1aaaab

#3530
0aaaaa

#3540
1aaaaa

#3550
0aaaaa

#3560
1aaaaa
1aaaac
b10101000001001 aaaaf

#3570
0aaaaa

#3580
1aaaaa
0aaaab

#3590
0aaaaa

#3600
1aaaaa
0aaaac

#3610
0aaaaa

#3620
1aaaaa

#3630
0aaaaa

#3640
1aaaaa
1aaaab

#3650
0aaaaa

#3660
1aaaaa

#3670
0aaaaa

#3680
1aaaaa
1aaaac
b11100110100100 aaaaf

#3690
0aaaaa

#3700
1aaaaa
0aaaab

#3710
0aaaaa

#3720
1aaaaa
0aaaac

#3730
0aaaaa

#3740
1aaaaa

#3750
0aaaaa

#3760
1aaaaa
1aaaab

#3770
0aaaaa

#3780
1aaaaa

#3790
0aaaaa

#3800
1aaaaa
1aaaac
b11101100111111 aaaaf

#3810
0aaaaa

#3820
1aaaaa
0aaaab

#3830
0aaaaa

#3840
1aaaaa
0aaaac

#3850
0aaaaa

#3860
1aaaaa

#3870
0aaaaa

#3880
1aaaaa
1aaaab

#3890
0aaaaa

#3900
1aaaaa

#3910
0aaaaa

#3920
1aaaaa
1aaaac
b10110110010110 aaaaf

#3930
0aaaaa

#3940
1aaaaa
0aaaab

#3950
0aaaaa

#3960
1aaaaa
0aaaac

#3970
0aaaaa

#3980
1aaaaa

#3990
0aaaaa

#4000
1aaaaa
1aaaab

#4010
0aaaaa

#4020
1aaaaa

#4030
0aaaaa

#4040
1aaaaa
1aaaac
b1011011000000 aaaaf

#4050
0aaaaa

#4060
1aaaaa
0aaaab

#4070
0aaaaa

#4080
1aaaaa
0aaaac

#4090
0aaaaa

#4100
1aaaaa

#4110
0aaaaa

#4120
1aaaaa
1aaaab

#4130
0aaaaa

#4140
1aaaaa

#4150
0aaaaa

#4160
1aaaaa
1aaaac
b100111001 aaaaf

#4170
0aaaaa

#4180
1aaaaa
0aaaab

#4190
0aaaaa

#4200
1aaaaa
0aaaac

#4210
0aaaaa

#4220
1aaaaa

#4230
0aaaaa

#4240
1aaaaa
1aaaab

#4250
0aaaaa

#4260
1aaaaa

#4270
0aaaaa

#4280
1aaaaa
1aaaac
b1111011011001100 aaaaf

#4290
0aaaaa

#4300
1aaaaa
0aaaab

#4310
0aaaaa

#4320
1aaaaa
0aaaac

#4330
0aaaaa

#4340
1aaaaa

#4350
0aaaaa

#4360
1aaaaa
1aaaab

#4370
0aaaaa

#4380
1aaaaa

#4390
0aaaaa

#4400
1aaaaa
1aaaac
b1111101111001010 aaaaf

#4410
0aaaaa

#4420
1aaaaa
0aaaab

#4430
0aaaaa

#4440
1aaaaa
0aaaac

#4450
0aaaaa

#4460
1aaaaa

#4470
0aaaaa

#4480
1aaaaa
1aaaab

#4490
0aaaaa

#4500
1aaaaa

#4510
0aaaaa

#4520
1aaaaa
1aaaac
b110011111011 aaaaf

#4530
0aaaaa

#4540
1aaaaa
0aaaab

#4550
0aaaaa

#4560
1aaaaa
0aaaac

#4570
0aaaaa

#4580
1aaaaa

#4590
0aaaaa

#4600
1aaaaa
1aaaab

#4610
0aaaaa

#4620
1aaaaa

#4630
0aaaaa

#4640
1aaaaa
1aaaac
b10000100101000 aaaaf

#4650
0aaaaa

#4660
1aaaaa
0aaaab

#4670
0aaaaa

#4680
1aaaaa
0aaaac

#4690
0aaaaa

#4700
1aaaaa

#4710
0aaaaa

#4720
1aaaaa
1aaaab

#4730
0aaaaa

#4740
1aaaaa

#4750
0aaaaa

#4760
1aaaaa
1aaaac
b10110110011100 aaaaf

#4770
0aaaaa

#4780
1aaaaa
0aaaab

#4790
0aaaaa

#4800
1aaaaa
0aaaac

#4810
0aaaaa

#4820
1aaaaa

#4830
0aaaaa

#4840
1aaaaa
1aaaab

#4850
0aaaaa

#4860
1aaaaa

#4870
0aaaaa

#4880
1aaaaa
1aaaac
b10101101010111 aaaaf

#4890
0aaaaa

#4900
1aaaaa
0aaaab

#4910
0aaaaa

#4920
1aaaaa
0aaaac

#4930
0aaaaa

#4940
1aaaaa

#4950
0aaaaa

#4960
1aaaaa
1aaaab

#4970
0aaaaa

#4980
1aaaaa

#4990
0aaaaa

#5000
1aaaaa
1aaaac
b1101001111001 aaaaf

#5010
0aaaaa

#5020
1aaaaa
0aaaab

#5030
0aaaaa

#5040
1aaaaa
0aaaac

#5050
0aaaaa

#5060
1aaaaa

#5070
0aaaaa

#5080
1aaaaa
1aaaab

#5090
0aaaaa

#5100
1aaaaa

#5110
0aaaaa

#5120
1aaaaa
1aaaac
b1000110100 aaaaf

#5130
0aaaaa

#5140
1aaaaa
0aaaab

#5150
0aaaaa

#5160
1aaaaa
0aaaac

#5170
0aaaaa

#5180
1aaaaa

#5190
0aaaaa

#5200
1aaaaa
1aaaab

#5210
0aaaaa

#5220
1aaaaa

#5230
0aaaaa

#5240
1aaaaa
1aaaac
b1110110101001100 aaaaf

#5250
0aaaaa

#5260
1aaaaa
0aaaab

#5270
0aaaaa

#5280
1aaaaa
0aaaac

#5290
0aaaaa

#5300
1aaaaa

#5310
0aaaaa

#5320
1aaaaa
1aaaab

#5330
0aaaaa

#5340
1aaaaa

#5350
0aaaaa

#5360
1aaaaa
1aaaac
b1110010011011101 aaaaf

#5370
0aaaaa

#5380
1aaaaa
0aaaab

#5390
0aaaaa

#5400
1aaaaa
0aaaac

#5410
0aaaaa

#5420
1aaaaa

#5430
0aaaaa

#5440
1aaaaa
1aaaab

#5450
0aaaaa

#5460
1aaaaa

#5470
0aaaaa

#5480
1aaaaa
1aaaac
b1110101111101100 aaaaf

#5490
0aaaaa

#5500
1aaaaa
0aaaab

#5510
0aaaaa

#5520
1aaaaa
0aaaac

#5530
0aaaaa

#5540
1aaaaa

#5550
0aaaaa

#5560
1aaaaa
1aaaab

#5570
0aaaaa

#5580
1aaaaa

#5590
0aaaaa

#5600
1aaaaa
1aaaac
b1111110111110100 aaaaf

#5610
0aaaaa

#5620
1aaaaa
0aaaab

#5630
0aaaaa

#5640
1aaaaa
0aaaac

#5650
0aaaaa

#5660
1aaaaa

#5670
0aaaaa

#5680
1aaaaa
1aaaab

#5690
0aaaaa

#5700
1aaaaa

#5710
0aaaaa

#5720
1aaaaa
1aaaac
b1000100010110 aaaaf

#5730
0aaaaa

#5740
1aaaaa
0aaaab

#5750
0aaaaa

#5760
1aaaaa
0aaaac

#5770
0aaaaa

#5780
1aaaaa

#5790
0aaaaa

#5800
1aaaaa
1aaaab

#5810
0aaaaa

#5820
1aaaaa

#5830
0aaaaa

#5840
1aaaaa
1aaaac
b1101011101101 aaaaf

#5850
0aaaaa

#5860
1aaaaa
0aaaab

#5870
0aaaaa

#5880
1aaaaa
0aaaac

#5890
0aaaaa

#5900
1aaaaa

#5910
0aaaaa

#5920
1aaaaa
1aaaab

#5930
0aaaaa

#5940
1aaaaa

#5950
0aaaaa

#5960
1aaaaa
1aaaac
b1010110010111 aaaaf

#5970
0aaaaa

#5980
1aaaaa
0aaaab

#5990
0aaaaa

#6000
1aaaaa
0aaaac

#6010
0aaaaa

#6020
1aaaaa

#6030
0aaaaa

#6040
1aaaaa
1aaaab

#6050
0aaaaa

#6060
1aaaaa

#6070
0aaaaa

#6080
1aaaaa
1aaaac
b1010011000 aaaaf

#6090
0aaaaa

#6100
1aaaaa
0aaaab

#6110
0aaaaa

#6120
1aaaaa
0aaaac

#6130
0aaaaa

#6140
1aaaaa

#6150
0aaaaa

#6160
1aaaaa
1aaaab

#6170
0aaaaa

#6180
1aaaaa

#6190
0aaaaa

#6200
1aaaaa
1aaaac
b1110101000011101 aaaaf

#6210
0aaaaa

#6220
1aaaaa
0aaaab

#6230
0aaaaa

#6240
1aaaaa
0aaaac

#6250
0aaaaa

#6260
1aaaaa

#6270
0aaaaa

#6280
1aaaaa
1aaaab

#6290
0aaaaa

#6300
1aaaaa

#6310
0aaaaa

#6320
1aaaaa
1aaaac
b1101011100000010 aaaaf

#6330
0aaaaa

#6340
1aaaaa
0aaaab

#6350
0aaaaa

#6360
1aaaaa
0aaaac

#6370
0aaaaa

#6380
1aaaaa

#6390
0aaaaa

#6400
1aaaaa
1aaaab

#6410
0aaaaa

#6420
1aaaaa

#6430
0aaaaa

#6440
1aaaaa
1aaaac
b1101000110001111 aaaaf

#6450
0aaaaa

#6460
1aaaaa
0aaaab

#6470
0aaaaa

#6480
1aaaaa
0aaaac

#6490
0aaaaa

#6500
1aaaaa

#6510
0aaaaa

#6520
1aaaaa
1aaaab

#6530
0aaaaa

#6540
1aaaaa

#6550
0aaaaa

#6560
1aaaaa
1aaaac
b1101101101101101 aaaaf

#6570
0aaaaa

#6580
1aaaaa
0aaaab

#6590
0aaaaa

#6600
1aaaaa
0aaaac

#6610
0aaaaa

#6620
1aaaaa

#6630
0aaaaa

#6640
1aaaaa
1aaaab

#6650
0aaaaa

#6660
1aaaaa

#6670
0aaaaa

#6680
1aaaaa
1aaaac
b1110111011011110 aaaaf

#6690
0aaaaa

#6700
1aaaaa
0aaaab

#6710
0aaaaa

#6720
1aaaaa
0aaaac

#6730
0aaaaa

#6740
1aaaaa

#6750
0aaaaa

#6760
1aaaaa
1aaaab

#6770
0aaaaa

#6780
1aaaaa

#6790
0aaaaa

#6800
1aaaaa
1aaaac
b110000100 aaaaf

#6810
0aaaaa

#6820
1aaaaa
0aaaab

#6830
0aaaaa

#6840
1aaaaa
0aaaac

#6850
0aaaaa

#6860
1aaaaa

#6870
0aaaaa

#6880
1aaaaa
1aaaab

#6890
0aaaaa

#6900
1aaaaa

#6910
0aaaaa

#6920
1aaaaa
1aaaac
b100101110010 aaaaf

#6930
0aaaaa

#6940
1aaaaa
0aaaab

#6950
0aaaaa

#6960
1aaaaa
0aaaac

#6970
0aaaaa

#6980
1aaaaa

#6990
0aaaaa

#7000
1aaaaa
1aaaab

#7010
0aaaaa

#7020
1aaaaa

#7030
0aaaaa

#7040
1aaaaa
1aaaac
b111111101 aaaaf

#7050
0aaaaa

#7060
1aaaaa
0aaaab

#7070
0aaaaa

#7080
1aaaaa
0aaaac

#7090
0aaaaa

#7100
1aaaaa

#7110
0aaaaa

#7120
1aaaaa
1aaaab

#7130
0aaaaa

#7140
1aaaaa

#7150
0aaaaa

#7160
1aaaaa
1aaaac
b1110111000000100 aaaaf

#7170
0aaaaa

#7180
1aaaaa
0aaaab

#7190
0aaaaa

#7200
1aaaaa
0aaaac

#7210
0aaaaa

#7220
1aaaaa

#7230
0aaaaa

#7240
1aaaaa
1aaaab

#7250
0aaaaa

#7260
1aaaaa

#7270
0aaaaa

#7280
1aaaaa
1aaaac
b1101011010001100 aaaaf

#7290
0aaaaa

#7300
1aaaaa
0aaaab

#7310
0aaaaa

#7320
1aaaaa
0aaaac

#7330
0aaaaa

#7340
1aaaaa

#7350
0aaaaa

#7360
1aaaaa
1aaaab

#7370
0aaaaa

#7380
1aaaaa

#7390
0aaaaa

#7400
1aaaaa
1aaaac
b1100011001011101 aaaaf

#7410
0aaaaa

#7420
1aaaaa
0aaaab

#7430
0aaaaa

#7440
1aaaaa
0aaaac

#7450
0aaaaa

#7460
1aaaaa

#7470
0aaaaa

#7480
1aaaaa
1aaaab

#7490
0aaaaa

#7500
1aaaaa

#7510
0aaaaa

#7520
1aaaaa
1aaaac
b1100010011000100 aaaaf

#7530
0aaaaa

#7540
1aaaaa
0aaaab

#7550
0aaaaa

#7560
1aaaaa
0aaaac

#7570
0aaaaa

#7580
1aaaaa

#7590
0aaaaa

#7600
1aaaaa
1aaaab

#7610
0aaaaa

#7620
1aaaaa

#7630
0aaaaa

#7640
1aaaaa
1aaaac
b1101001000001001 aaaaf

#7650
0aaaaa

#7660
1aaaaa
0aaaab

#7670
0aaaaa

#7680
1aaaaa
0aaaac

#7690
0aaaaa

#7700
1aaaaa

#7710
0aaaaa

#7720
1aaaaa
1aaaab

#7730
0aaaaa

#7740
1aaaaa

#7750
0aaaaa

#7760
1aaaaa
1aaaac
b1110011101001001 aaaaf

#7770
0aaaaa

#7780
1aaaaa
0aaaab

#7790
0aaaaa

#7800
1aaaaa
0aaaac

#7810
0aaaaa

#7820
1aaaaa

#7830
0aaaaa

#7840
1aaaaa
1aaaab

#7850
0aaaaa

#7860
1aaaaa

#7870
0aaaaa

#7880
1aaaaa
1aaaac
b1111100111010011 aaaaf

#7890
0aaaaa

#7900
1aaaaa
0aaaab

#7910
0aaaaa

#7920
1aaaaa
0aaaac

#7930
0aaaaa

#7940
1aaaaa

#7950
0aaaaa

#7960
1aaaaa
1aaaab

#7970
0aaaaa

#7980
1aaaaa

#7990
0aaaaa

#8000
1aaaaa
1aaaac
b1011001 aaaaf

#8010
0aaaaa

#8020
1aaaaa
0aaaab

#8030
0aaaaa

#8040
1aaaaa
0aaaac

#8050
0aaaaa

#8060
1aaaaa

#8070
0aaaaa

#8080
1aaaaa
1aaaab

#8090
0aaaaa

#8100
1aaaaa

#8110
0aaaaa

#8120
1aaaaa
1aaaac
b1111011101111101 aaaaf

#8130
0aaaaa

#8140
1aaaaa
0aaaab

#8150
0aaaaa

#8160
1aaaaa
0aaaac

#8170
0aaaaa

#8180
1aaaaa

#8190
0aaaaa

#8200
1aaaaa
1aaaab

#8210
0aaaaa

#8220
1aaaaa

#8230
0aaaaa

#8240
1aaaaa
1aaaac
b1110001101101011 aaaaf

#8250
0aaaaa

#8260
1aaaaa
0aaaab

#8270
0aaaaa

#8280
1aaaaa
0aaaac

#8290
0aaaaa

#8300
1aaaaa

#8310
0aaaaa

#8320
1aaaaa
1aaaab

#8330
0aaaaa

#8340
1aaaaa

#8350
0aaaaa

#8360
1aaaaa
1aaaac
b1100110111011001 aaaaf

#8370
0aaaaa

#8380
1aaaaa
0aaaab

#8390
0aaaaa

#8400
1aaaaa
0aaaac

#8410
0aaaaa

#8420
1aaaaa

#8430
0aaaaa

#8440
1aaaaa
1aaaab

#8450
0aaaaa

#8460
1aaaaa

#8470
0aaaaa

#8480
1aaaaa
1aaaac
b1100000101001101 aaaaf

#8490
0aaaaa

#8500
1aaaaa
0aaaab

#8510
0aaaaa

#8520
1aaaaa
0aaaac

#8530
0aaaaa

#8540
1aaaaa

#8550
0aaaaa

#8560
1aaaaa
1aaaab

#8570
0aaaaa

#8580
1aaaaa

#8590
0aaaaa

#8600
1aaaaa
1aaaac
b1100001111111011 aaaaf

#8610
0aaaaa

#8620
1aaaaa
0aaaab

#8630
0aaaaa

#8640
1aaaaa
0aaaac

#8650
0aaaaa

#8660
1aaaaa

#8670
0aaaaa

#8680
1aaaaa
1aaaab

#8690
0aaaaa

#8700
1aaaaa

#8710
0aaaaa

#8720
1aaaaa
1aaaac
b1101010011000101 aaaaf

#8730
0aaaaa

#8740
1aaaaa
0aaaab

#8750
0aaaaa

#8760
1aaaaa
0aaaac

#8770
0aaaaa

#8780
1aaaaa

#8790
0aaaaa

#8800
1aaaaa
1aaaab

#8810
0aaaaa

#8820
1aaaaa

#8830
0aaaaa

#8840
1aaaaa
1aaaac
b1110101111000011 aaaaf

#8850
0aaaaa

#8860
1aaaaa
0aaaab

#8870
0aaaaa

#8880
1aaaaa
0aaaac

#8890
0aaaaa

#8900
1aaaaa

#8910
0aaaaa

#8920
1aaaaa
1aaaab

#8930
0aaaaa

#8940
1aaaaa

#8950
0aaaaa

#8960
1aaaaa
1aaaac
b1111111000011011 aaaaf

#8970
0aaaaa

#8980
1aaaaa
0aaaab

#8990
0aaaaa

#9000
1aaaaa
0aaaac

#9010
0aaaaa

#9020
1aaaaa

#9030
0aaaaa

#9040
1aaaaa
1aaaab

#9050
0aaaaa

#9060
1aaaaa

#9070
0aaaaa

#9080
1aaaaa
1aaaac
b1101001001 aaaaf

#9090
0aaaaa

#9100
1aaaaa
0aaaab

#9110
0aaaaa

#9120
1aaaaa
0aaaac

#9130
0aaaaa

#9140
1aaaaa

#9150
0aaaaa

#9160
1aaaaa
1aaaab

#9170
0aaaaa

#9180
1aaaaa

#9190
0aaaaa

#9200
1aaaaa
1aaaac
b1111100101000101 aaaaf

#9210
0aaaaa

#9220
1aaaaa
0aaaab

#9230
0aaaaa

#9240
1aaaaa
0aaaac

#9250
0aaaaa

#9260
1aaaaa

#9270
0aaaaa

#9280
1aaaaa
1aaaab

#9290
0aaaaa

#9300
1aaaaa

#9310
0aaaaa

#9320
1aaaaa
1aaaac
b1110010101111000 aaaaf

#9330
0aaaaa

#9340
1aaaaa
0aaaab

#9350
0aaaaa

#9360
1aaaaa
0aaaac

#9370
0aaaaa

#9380
1aaaaa

#9390
0aaaaa

#9400
1aaaaa
1aaaab

#9410
0aaaaa

#9420
1aaaaa

#9430
0aaaaa

#9440
1aaaaa
1aaaac
b1101001000100010 aaaaf

#9450
0aaaaa

#9460
1aaaaa
0aaaab

#9470
0aaaaa

#9480
1aaaaa
0aaaac

#9490
0aaaaa

#9500
1aaaaa

#9510
0aaaaa

#9520
1aaaaa
1aaaab

#9530
0aaaaa

#9540
1aaaaa

#9550
0aaaaa

#9560
1aaaaa
1aaaac
b1100100101011000 aaaaf

#9570
0aaaaa

#9580
1aaaaa
0aaaab

#9590
0aaaaa

#9600
1aaaaa
0aaaac

#9610
0aaaaa

#9620
1aaaaa

#9630
0aaaaa

#9640
1aaaaa
1aaaab

#9650
0aaaaa

#9660
1aaaaa

#9670
0aaaaa

#9680
1aaaaa
1aaaac
b1101000000011101 aaaaf

#9690
0aaaaa

#9700
1aaaaa
0aaaab

#9710
0aaaaa

#9720
1aaaaa
0aaaac

#9730
0aaaaa

#9740
1aaaaa

#9750
0aaaaa

#9760
1aaaaa
1aaaab

#9770
0aaaaa

#9780
1aaaaa

#9790
0aaaaa

#9800
1aaaaa
1aaaac
b1110001111110001 aaaaf

#9810
0aaaaa

#9820
1aaaaa
0aaaab

#9830
0aaaaa

#9840
1aaaaa
0aaaac

#9850
0aaaaa

#9860
1aaaaa

#9870
0aaaaa

#9880
1aaaaa
1aaaab

#9890
0aaaaa

#9900
1aaaaa

#9910
0aaaaa

#9920
1aaaaa
1aaaac
b1111110000001000 aaaaf

#9930
0aaaaa

#9940
1aaaaa
0aaaab

#9950
0aaaaa

#9960
1aaaaa
0aaaac

#9970
0aaaaa

#9980
1aaaaa

#9990
0aaaaa

#10000
1aaaaa
1aaaab

#10010
0aaaaa

#10020
1aaaaa

#10030
0aaaaa

#10040
1aaaaa
1aaaac
b110110001110 aaaaf

#10050
0aaaaa

#10060
1aaaaa
0aaaab

#10070
0aaaaa

#10080
1aaaaa
0aaaac

#10090
0aaaaa

#10100
1aaaaa

#10110
0aaaaa

#10120
1aaaaa
1aaaab

#10130
0aaaaa

#10140
1aaaaa

#10150
0aaaaa

#10160
1aaaaa
1aaaac
b1000011101110 aaaaf

#10170
0aaaaa

#10180
1aaaaa
0aaaab

#10190
0aaaaa

#10200
1aaaaa
0aaaac

#10210
0aaaaa

#10220
1aaaaa

#10230
0aaaaa

#10240
1aaaaa
1aaaab

#10250
0aaaaa

#10260
1aaaaa

#10270
0aaaaa

#10280
1aaaaa
1aaaac
b10101111101 aaaaf

#10290
0aaaaa

#10300
1aaaaa
0aaaab

#10310
0aaaaa

#10320
1aaaaa
0aaaac

#10330
0aaaaa

#10340
1aaaaa

#10350
0aaaaa

#10360
1aaaaa
1aaaab

#10370
0aaaaa

#10380
1aaaaa

#10390
0aaaaa

#10400
1aaaaa
1aaaac
b1111000111001101 aaaaf

#10410
0aaaaa

#10420
1aaaaa
0aaaab

#10430
0aaaaa

#10440
1aaaaa
0aaaac

#10450
0aaaaa

#10460
1aaaaa

#10470
0aaaaa

